{
  "ReRoutes": [
    {
      "DownstreamPathTemplate": "/api/{everything}",
      "DownstreamScheme": "http",
      "DownstreamHostAndPorts": [
        {
          "Host": "localhost",
          "Port": 54707
        }
      ],
      "UpstreamPathTemplate": "/ads/{everything}",
      "UpstreamHttpMethod": [ "Post", "Get", "Put", "Delete", "Options" ],
      "AuthenticationOptions": {
        "AuthenticationProviderKey": "Bearer",
        "AllowedScopes": []
      }
    },
    {
      "DownstreamPathTemplate": "/api/{everything}",
      "DownstreamScheme": "http",
      "DownstreamHostAndPorts": [
        {
          "Host": "localhost",
          "Port": 54116
        }
      ],
      "UpstreamPathTemplate": "/evt/{everything}",
      "UpstreamHttpMethod": [ "Post", "Get", "Put", "Delete", "Options" ],
      "AuthenticationOptions": {
        "AuthenticationProviderKey": "Bearer",
        "AllowedScopes": []
      }
    }
  ],
  "GlobalConfiguration": {
    "BaseUrl" : "http://localhost:3893" 
  }
}
